%!PS-Adobe-2.0 EPSF-2.0
%%Title: /media/devel/grade-project/md5cuda/documents/diagrams/md5class.dia
%%Creator: Dia v0.97.2
%%CreationDate: Wed Feb 24 15:29:27 2016
%%For: cesar_flores
%%Orientation: Portrait
%%Magnification: 1.0000
%%BoundingBox: 0 0 604 559
%%BeginSetup
%%EndSetup
%%EndComments
%%BeginProlog
[ /.notdef /.notdef /.notdef /.notdef /.notdef /.notdef /.notdef /.notdef /.notdef /.notdef
/.notdef /.notdef /.notdef /.notdef /.notdef /.notdef /.notdef /.notdef /.notdef /.notdef
/.notdef /.notdef /.notdef /.notdef /.notdef /.notdef /.notdef /.notdef /.notdef /.notdef
/.notdef /.notdef /space /exclam /quotedbl /numbersign /dollar /percent /ampersand /quoteright
/parenleft /parenright /asterisk /plus /comma /hyphen /period /slash /zero /one
/two /three /four /five /six /seven /eight /nine /colon /semicolon
/less /equal /greater /question /at /A /B /C /D /E
/F /G /H /I /J /K /L /M /N /O
/P /Q /R /S /T /U /V /W /X /Y
/Z /bracketleft /backslash /bracketright /asciicircum /underscore /quoteleft /a /b /c
/d /e /f /g /h /i /j /k /l /m
/n /o /p /q /r /s /t /u /v /w
/x /y /z /braceleft /bar /braceright /asciitilde /.notdef /.notdef /.notdef
/.notdef /.notdef /.notdef /.notdef /.notdef /.notdef /.notdef /.notdef /.notdef /.notdef
/.notdef /.notdef /.notdef /.notdef /.notdef /.notdef /.notdef /.notdef /.notdef /.notdef
/.notdef /.notdef /.notdef /.notdef /.notdef /.notdef /.notdef /.notdef /.notdef /.notdef
/space /exclamdown /cent /sterling /currency /yen /brokenbar /section /dieresis /copyright
/ordfeminine /guillemotleft /logicalnot /hyphen /registered /macron /degree /plusminus /twosuperior /threesuperior
/acute /mu /paragraph /periodcentered /cedilla /onesuperior /ordmasculine /guillemotright /onequarter /onehalf
/threequarters /questiondown /Agrave /Aacute /Acircumflex /Atilde /Adieresis /Aring /AE /Ccedilla
/Egrave /Eacute /Ecircumflex /Edieresis /Igrave /Iacute /Icircumflex /Idieresis /Eth /Ntilde
/Ograve /Oacute /Ocircumflex /Otilde /Odieresis /multiply /Oslash /Ugrave /Uacute /Ucircumflex
/Udieresis /Yacute /Thorn /germandbls /agrave /aacute /acircumflex /atilde /adieresis /aring
/ae /ccedilla /egrave /eacute /ecircumflex /edieresis /igrave /iacute /icircumflex /idieresis
/eth /ntilde /ograve /oacute /ocircumflex /otilde /odieresis /divide /oslash /ugrave
/uacute /ucircumflex /udieresis /yacute /thorn /ydieresis] /isolatin1encoding exch def
/cp {closepath} bind def
/c {curveto} bind def
/f {fill} bind def
/a {arc} bind def
/ef {eofill} bind def
/ex {exch} bind def
/gr {grestore} bind def
/gs {gsave} bind def
/sa {save} bind def
/rs {restore} bind def
/l {lineto} bind def
/m {moveto} bind def
/rm {rmoveto} bind def
/n {newpath} bind def
/s {stroke} bind def
/sh {show} bind def
/slc {setlinecap} bind def
/slj {setlinejoin} bind def
/slw {setlinewidth} bind def
/srgb {setrgbcolor} bind def
/rot {rotate} bind def
/sc {scale} bind def
/sd {setdash} bind def
/ff {findfont} bind def
/sf {setfont} bind def
/scf {scalefont} bind def
/sw {stringwidth pop} bind def
/tr {translate} bind def

/ellipsedict 8 dict def
ellipsedict /mtrx matrix put
/ellipse
{ ellipsedict begin
   /endangle exch def
   /startangle exch def
   /yrad exch def
   /xrad exch def
   /y exch def
   /x exch def   /savematrix mtrx currentmatrix def
   x y tr xrad yrad sc
   0 0 1 startangle endangle arc
   savematrix setmatrix
   end
} def

/mergeprocs {
dup length
3 -1 roll
dup
length
dup
5 1 roll
3 -1 roll
add
array cvx
dup
3 -1 roll
0 exch
putinterval
dup
4 2 roll
putinterval
} bind def
/Times-Roman-latin1
    /Times-Roman findfont
    dup length dict begin
	{1 index /FID ne {def} {pop pop} ifelse} forall
	/Encoding isolatin1encoding def
    currentdict end
definefont pop
/Times-Italic-latin1
    /Times-Italic findfont
    dup length dict begin
	{1 index /FID ne {def} {pop pop} ifelse} forall
	/Encoding isolatin1encoding def
    currentdict end
definefont pop
/Times-Bold-latin1
    /Times-Bold findfont
    dup length dict begin
	{1 index /FID ne {def} {pop pop} ifelse} forall
	/Encoding isolatin1encoding def
    currentdict end
definefont pop
/Times-BoldItalic-latin1
    /Times-BoldItalic findfont
    dup length dict begin
	{1 index /FID ne {def} {pop pop} ifelse} forall
	/Encoding isolatin1encoding def
    currentdict end
definefont pop
/AvantGarde-Gothic-latin1
    /AvantGarde-Gothic findfont
    dup length dict begin
	{1 index /FID ne {def} {pop pop} ifelse} forall
	/Encoding isolatin1encoding def
    currentdict end
definefont pop
/AvantGarde-BookOblique-latin1
    /AvantGarde-BookOblique findfont
    dup length dict begin
	{1 index /FID ne {def} {pop pop} ifelse} forall
	/Encoding isolatin1encoding def
    currentdict end
definefont pop
/AvantGarde-Demi-latin1
    /AvantGarde-Demi findfont
    dup length dict begin
	{1 index /FID ne {def} {pop pop} ifelse} forall
	/Encoding isolatin1encoding def
    currentdict end
definefont pop
/AvantGarde-DemiOblique-latin1
    /AvantGarde-DemiOblique findfont
    dup length dict begin
	{1 index /FID ne {def} {pop pop} ifelse} forall
	/Encoding isolatin1encoding def
    currentdict end
definefont pop
/Bookman-Light-latin1
    /Bookman-Light findfont
    dup length dict begin
	{1 index /FID ne {def} {pop pop} ifelse} forall
	/Encoding isolatin1encoding def
    currentdict end
definefont pop
/Bookman-LightItalic-latin1
    /Bookman-LightItalic findfont
    dup length dict begin
	{1 index /FID ne {def} {pop pop} ifelse} forall
	/Encoding isolatin1encoding def
    currentdict end
definefont pop
/Bookman-Demi-latin1
    /Bookman-Demi findfont
    dup length dict begin
	{1 index /FID ne {def} {pop pop} ifelse} forall
	/Encoding isolatin1encoding def
    currentdict end
definefont pop
/Bookman-DemiItalic-latin1
    /Bookman-DemiItalic findfont
    dup length dict begin
	{1 index /FID ne {def} {pop pop} ifelse} forall
	/Encoding isolatin1encoding def
    currentdict end
definefont pop
/Courier-latin1
    /Courier findfont
    dup length dict begin
	{1 index /FID ne {def} {pop pop} ifelse} forall
	/Encoding isolatin1encoding def
    currentdict end
definefont pop
/Courier-Oblique-latin1
    /Courier-Oblique findfont
    dup length dict begin
	{1 index /FID ne {def} {pop pop} ifelse} forall
	/Encoding isolatin1encoding def
    currentdict end
definefont pop
/Courier-Bold-latin1
    /Courier-Bold findfont
    dup length dict begin
	{1 index /FID ne {def} {pop pop} ifelse} forall
	/Encoding isolatin1encoding def
    currentdict end
definefont pop
/Courier-BoldOblique-latin1
    /Courier-BoldOblique findfont
    dup length dict begin
	{1 index /FID ne {def} {pop pop} ifelse} forall
	/Encoding isolatin1encoding def
    currentdict end
definefont pop
/Helvetica-latin1
    /Helvetica findfont
    dup length dict begin
	{1 index /FID ne {def} {pop pop} ifelse} forall
	/Encoding isolatin1encoding def
    currentdict end
definefont pop
/Helvetica-Oblique-latin1
    /Helvetica-Oblique findfont
    dup length dict begin
	{1 index /FID ne {def} {pop pop} ifelse} forall
	/Encoding isolatin1encoding def
    currentdict end
definefont pop
/Helvetica-Bold-latin1
    /Helvetica-Bold findfont
    dup length dict begin
	{1 index /FID ne {def} {pop pop} ifelse} forall
	/Encoding isolatin1encoding def
    currentdict end
definefont pop
/Helvetica-BoldOblique-latin1
    /Helvetica-BoldOblique findfont
    dup length dict begin
	{1 index /FID ne {def} {pop pop} ifelse} forall
	/Encoding isolatin1encoding def
    currentdict end
definefont pop
/Helvetica-Narrow-latin1
    /Helvetica-Narrow findfont
    dup length dict begin
	{1 index /FID ne {def} {pop pop} ifelse} forall
	/Encoding isolatin1encoding def
    currentdict end
definefont pop
/Helvetica-Narrow-Oblique-latin1
    /Helvetica-Narrow-Oblique findfont
    dup length dict begin
	{1 index /FID ne {def} {pop pop} ifelse} forall
	/Encoding isolatin1encoding def
    currentdict end
definefont pop
/Helvetica-Narrow-Bold-latin1
    /Helvetica-Narrow-Bold findfont
    dup length dict begin
	{1 index /FID ne {def} {pop pop} ifelse} forall
	/Encoding isolatin1encoding def
    currentdict end
definefont pop
/Helvetica-Narrow-BoldOblique-latin1
    /Helvetica-Narrow-BoldOblique findfont
    dup length dict begin
	{1 index /FID ne {def} {pop pop} ifelse} forall
	/Encoding isolatin1encoding def
    currentdict end
definefont pop
/NewCenturySchlbk-Roman-latin1
    /NewCenturySchlbk-Roman findfont
    dup length dict begin
	{1 index /FID ne {def} {pop pop} ifelse} forall
	/Encoding isolatin1encoding def
    currentdict end
definefont pop
/NewCenturySchlbk-Italic-latin1
    /NewCenturySchlbk-Italic findfont
    dup length dict begin
	{1 index /FID ne {def} {pop pop} ifelse} forall
	/Encoding isolatin1encoding def
    currentdict end
definefont pop
/NewCenturySchlbk-Bold-latin1
    /NewCenturySchlbk-Bold findfont
    dup length dict begin
	{1 index /FID ne {def} {pop pop} ifelse} forall
	/Encoding isolatin1encoding def
    currentdict end
definefont pop
/NewCenturySchlbk-BoldItalic-latin1
    /NewCenturySchlbk-BoldItalic findfont
    dup length dict begin
	{1 index /FID ne {def} {pop pop} ifelse} forall
	/Encoding isolatin1encoding def
    currentdict end
definefont pop
/Palatino-Roman-latin1
    /Palatino-Roman findfont
    dup length dict begin
	{1 index /FID ne {def} {pop pop} ifelse} forall
	/Encoding isolatin1encoding def
    currentdict end
definefont pop
/Palatino-Italic-latin1
    /Palatino-Italic findfont
    dup length dict begin
	{1 index /FID ne {def} {pop pop} ifelse} forall
	/Encoding isolatin1encoding def
    currentdict end
definefont pop
/Palatino-Bold-latin1
    /Palatino-Bold findfont
    dup length dict begin
	{1 index /FID ne {def} {pop pop} ifelse} forall
	/Encoding isolatin1encoding def
    currentdict end
definefont pop
/Palatino-BoldItalic-latin1
    /Palatino-BoldItalic findfont
    dup length dict begin
	{1 index /FID ne {def} {pop pop} ifelse} forall
	/Encoding isolatin1encoding def
    currentdict end
definefont pop
/Symbol-latin1
    /Symbol findfont
definefont pop
/ZapfChancery-MediumItalic-latin1
    /ZapfChancery-MediumItalic findfont
    dup length dict begin
	{1 index /FID ne {def} {pop pop} ifelse} forall
	/Encoding isolatin1encoding def
    currentdict end
definefont pop
/ZapfDingbats-latin1
    /ZapfDingbats findfont
    dup length dict begin
	{1 index /FID ne {def} {pop pop} ifelse} forall
	/Encoding isolatin1encoding def
    currentdict end
definefont pop
28.346000 -28.346000 scale
-0.300000 -22.850000 translate
%%EndProlog


0.100000 slw
[] 0 sd
1.000000 1.000000 1.000000 srgb
n 3.700000 11.800000 m 3.700000 14.000000 l 18.830000 14.000000 l 18.830000 11.800000 l f
0.000000 0.000000 0.000000 srgb
n 3.700000 11.800000 m 3.700000 14.000000 l 18.830000 14.000000 l 18.830000 11.800000 l cp s
/Courier-latin1 ff 0.560000 scf sf
(<<abstract>>) dup sw 2 div 11.265000 ex sub 12.440000 m
 gs 1 -1 sc sh gr
/Helvetica-BoldOblique-latin1 ff 0.700000 scf sf
(AbstractMD5Encoder) dup sw 2 div 11.265000 ex sub 13.350000 m
 gs 1 -1 sc sh gr
1.000000 1.000000 1.000000 srgb
n 3.700000 14.000000 m 3.700000 14.400000 l 18.830000 14.400000 l 18.830000 14.000000 l f
0.000000 0.000000 0.000000 srgb
n 3.700000 14.000000 m 3.700000 14.400000 l 18.830000 14.400000 l 18.830000 14.000000 l cp s
1.000000 1.000000 1.000000 srgb
n 3.700000 14.400000 m 3.700000 15.400000 l 18.830000 15.400000 l 18.830000 14.400000 l f
0.000000 0.000000 0.000000 srgb
n 3.700000 14.400000 m 3.700000 15.400000 l 18.830000 15.400000 l 18.830000 14.400000 l cp s
/Courier-latin1 ff 0.560000 scf sf
(+GetDigests\(\): vector<MD5DigestOutput>) 3.850000 14.940000 m
 gs 1 -1 sc sh gr
0.100000 slw
[] 0 sd
1.000000 1.000000 1.000000 srgb
n 3.700000 3.200000 m 3.700000 5.400000 l 18.830000 5.400000 l 18.830000 3.200000 l f
0.000000 0.000000 0.000000 srgb
n 3.700000 3.200000 m 3.700000 5.400000 l 18.830000 5.400000 l 18.830000 3.200000 l cp s
/Courier-latin1 ff 0.560000 scf sf
(<<interface>>) dup sw 2 div 11.265000 ex sub 3.840000 m
 gs 1 -1 sc sh gr
/Helvetica-Bold-latin1 ff 0.700000 scf sf
(MD5Encoder) dup sw 2 div 11.265000 ex sub 4.750000 m
 gs 1 -1 sc sh gr
1.000000 1.000000 1.000000 srgb
n 3.700000 5.400000 m 3.700000 5.800000 l 18.830000 5.800000 l 18.830000 5.400000 l f
0.000000 0.000000 0.000000 srgb
n 3.700000 5.400000 m 3.700000 5.800000 l 18.830000 5.800000 l 18.830000 5.400000 l cp s
1.000000 1.000000 1.000000 srgb
n 3.700000 5.800000 m 3.700000 8.400000 l 18.830000 8.400000 l 18.830000 5.800000 l f
0.000000 0.000000 0.000000 srgb
n 3.700000 5.800000 m 3.700000 8.400000 l 18.830000 8.400000 l 18.830000 5.800000 l cp s
/Courier-latin1 ff 0.560000 scf sf
(+MemoryDigest\(\): void) 3.850000 6.340000 m
 gs 1 -1 sc sh gr
(+FileDigest\(\): void) 3.850000 7.140000 m
 gs 1 -1 sc sh gr
(+GetDigests\(\): vector<MD5DigestOutput>) 3.850000 7.940000 m
 gs 1 -1 sc sh gr
0.100000 slw
[] 0 sd
1.000000 1.000000 1.000000 srgb
n 0.350000 19.150000 m 0.350000 20.550000 l 9.592500 20.550000 l 9.592500 19.150000 l f
0.000000 0.000000 0.000000 srgb
n 0.350000 19.150000 m 0.350000 20.550000 l 9.592500 20.550000 l 9.592500 19.150000 l cp s
/Helvetica-Bold-latin1 ff 0.700000 scf sf
(SimpleMD5Encoder) dup sw 2 div 4.971250 ex sub 19.900000 m
 gs 1 -1 sc sh gr
1.000000 1.000000 1.000000 srgb
n 0.350000 20.550000 m 0.350000 20.950000 l 9.592500 20.950000 l 9.592500 20.550000 l f
0.000000 0.000000 0.000000 srgb
n 0.350000 20.550000 m 0.350000 20.950000 l 9.592500 20.950000 l 9.592500 20.550000 l cp s
1.000000 1.000000 1.000000 srgb
n 0.350000 20.950000 m 0.350000 22.750000 l 9.592500 22.750000 l 9.592500 20.950000 l f
0.000000 0.000000 0.000000 srgb
n 0.350000 20.950000 m 0.350000 22.750000 l 9.592500 22.750000 l 9.592500 20.950000 l cp s
/Courier-latin1 ff 0.560000 scf sf
(+MemoryDigest\(\): void) 0.500000 21.490000 m
 gs 1 -1 sc sh gr
(+FileDigest\(\): void) 0.500000 22.290000 m
 gs 1 -1 sc sh gr
0.100000 slw
[] 0 sd
1.000000 1.000000 1.000000 srgb
n 12.950000 19.200000 m 12.950000 20.600000 l 21.535000 20.600000 l 21.535000 19.200000 l f
0.000000 0.000000 0.000000 srgb
n 12.950000 19.200000 m 12.950000 20.600000 l 21.535000 20.600000 l 21.535000 19.200000 l cp s
/Helvetica-Bold-latin1 ff 0.700000 scf sf
(CU_MD5Encoder) dup sw 2 div 17.242500 ex sub 19.950000 m
 gs 1 -1 sc sh gr
1.000000 1.000000 1.000000 srgb
n 12.950000 20.600000 m 12.950000 21.000000 l 21.535000 21.000000 l 21.535000 20.600000 l f
0.000000 0.000000 0.000000 srgb
n 12.950000 20.600000 m 12.950000 21.000000 l 21.535000 21.000000 l 21.535000 20.600000 l cp s
1.000000 1.000000 1.000000 srgb
n 12.950000 21.000000 m 12.950000 22.800000 l 21.535000 22.800000 l 21.535000 21.000000 l f
0.000000 0.000000 0.000000 srgb
n 12.950000 21.000000 m 12.950000 22.800000 l 21.535000 22.800000 l 21.535000 21.000000 l cp s
/Courier-latin1 ff 0.560000 scf sf
(+MemoryDigest\(\): void) 13.100000 21.540000 m
 gs 1 -1 sc sh gr
(+FileDigest\(\): void) 13.100000 22.340000 m
 gs 1 -1 sc sh gr
0.100000 slw
[1.000000] 0 sd
[0.400000] 0 sd
0 slj
0 slc
n 11.265000 9.311803 m 11.265000 9.250000 l 11.265000 11.699548 l 11.265000 11.749548 l s
0 slj
1.000000 1.000000 1.000000 srgb
n 11.665000 9.311803 m 11.265000 8.511803 l 10.865000 9.311803 l ef
0.100000 slw
[] 0 sd
0 slj
0.000000 0.000000 0.000000 srgb
n 11.665000 9.311803 m 11.265000 8.511803 l 10.865000 9.311803 l cp s
/Courier-latin1 ff 0.560000 scf sf
0.100000 slw
[] 0 sd
0 slj
0 slc
n 11.265000 16.362255 m 11.265000 17.700226 l 4.971250 17.700226 l 4.971250 19.150000 l s
0 slj
1.000000 1.000000 1.000000 srgb
n 11.665000 16.362255 m 11.265000 15.562255 l 10.865000 16.362255 l ef
0.100000 slw
[] 0 sd
0 slj
0.000000 0.000000 0.000000 srgb
n 11.665000 16.362255 m 11.265000 15.562255 l 10.865000 16.362255 l cp s
/Courier-latin1 ff 0.560000 scf sf
0.100000 slw
[] 0 sd
0 slj
0 slc
n 11.265000 16.362255 m 11.265000 17.700000 l 17.242500 17.700000 l 17.242500 19.149548 l s
0 slj
1.000000 1.000000 1.000000 srgb
n 11.665000 16.362255 m 11.265000 15.562255 l 10.865000 16.362255 l ef
0.100000 slw
[] 0 sd
0 slj
0.000000 0.000000 0.000000 srgb
n 11.665000 16.362255 m 11.265000 15.562255 l 10.865000 16.362255 l cp s
showpage
